<?xml version="1.0" encoding="UTF-8"?>
<svg id="Calque_1" data-name="Calque 1" xmlns="http://www.w3.org/2000/svg" xmlns:xlink="http://www.w3.org/1999/xlink" viewBox="0 0 550.93 272.48">
  <defs>
    <style>
      .cls-1, .cls-2 {
        fill: #fff;
      }

      .cls-3 {
        fill: url(#Dégradé_sans_nom_2);
      }

      .cls-2, .cls-4 {
        font-family: GravesendSans-Bold, 'Gravesend Sans';
        font-size: 96.81px;
        font-weight: 700;
        isolation: isolate;
        letter-spacing: -.04em;
      }

      .cls-5 {
        fill: #1e1e1c;
      }

      .cls-6 {
        fill: url(#Dégradé_sans_nom);
      }

      .cls-7 {
        fill: url(#Dégradé_sans_nom_3);
      }

      .cls-8 {
        fill: url(#Dégradé_sans_nom_4);
      }
    </style>
    <linearGradient id="Dégradé_sans_nom" data-name="Dégradé sans nom" x1="0" y1="789.8" x2="187.58" y2="789.8" gradientTransform="translate(0 -570)" gradientUnits="userSpaceOnUse">
      <stop offset="0" stop-color="#ce6ca6"/>
      <stop offset="0" stop-color="#cb6ba5"/>
      <stop offset=".16" stop-color="#a45c9e"/>
      <stop offset=".3" stop-color="#885199"/>
      <stop offset=".42" stop-color="#784b97"/>
      <stop offset=".51" stop-color="#724996"/>
      <stop offset=".67" stop-color="#704b97"/>
      <stop offset=".76" stop-color="#6a539e"/>
      <stop offset=".83" stop-color="#6161a8"/>
      <stop offset=".89" stop-color="#5474b7"/>
      <stop offset=".94" stop-color="#438dcb"/>
      <stop offset=".95" stop-color="#4092cf"/>
    </linearGradient>
    <linearGradient id="Dégradé_sans_nom_2" data-name="Dégradé sans nom 2" x1="0" y1="791.05" x2="187.58" y2="791.05" gradientTransform="translate(0 -570)" gradientUnits="userSpaceOnUse">
      <stop offset="0" stop-color="#ce6ca6"/>
      <stop offset="0" stop-color="#cb6ba5"/>
      <stop offset=".16" stop-color="#a45c9e"/>
      <stop offset=".3" stop-color="#885199"/>
      <stop offset=".42" stop-color="#784b97"/>
      <stop offset=".51" stop-color="#724996"/>
      <stop offset=".67" stop-color="#704b97"/>
      <stop offset=".76" stop-color="#6a539e"/>
      <stop offset=".83" stop-color="#6161a8"/>
      <stop offset=".89" stop-color="#5474b7"/>
      <stop offset=".94" stop-color="#438dcb"/>
      <stop offset=".95" stop-color="#4092cf"/>
    </linearGradient>
    <linearGradient id="Dégradé_sans_nom_3" data-name="Dégradé sans nom 3" x1="0" y1="791.1" x2="187.58" y2="791.1" gradientTransform="translate(0 -570)" gradientUnits="userSpaceOnUse">
      <stop offset="0" stop-color="#ce6ca6"/>
      <stop offset="0" stop-color="#cb6ba5"/>
      <stop offset=".16" stop-color="#a45c9e"/>
      <stop offset=".3" stop-color="#885199"/>
      <stop offset=".42" stop-color="#784b97"/>
      <stop offset=".51" stop-color="#724996"/>
      <stop offset=".67" stop-color="#704b97"/>
      <stop offset=".76" stop-color="#6a539e"/>
      <stop offset=".83" stop-color="#6161a8"/>
      <stop offset=".89" stop-color="#5474b7"/>
      <stop offset=".94" stop-color="#438dcb"/>
      <stop offset=".95" stop-color="#4092cf"/>
    </linearGradient>
    <linearGradient id="Dégradé_sans_nom_4" data-name="Dégradé sans nom 4" x1="232.15" y1="656.62" x2="355.21" y2="656.62" gradientTransform="translate(0 -570)" gradientUnits="userSpaceOnUse">
      <stop offset="0" stop-color="#ce6ca6"/>
      <stop offset="0" stop-color="#cb6ba5"/>
      <stop offset=".16" stop-color="#a45c9e"/>
      <stop offset=".3" stop-color="#885199"/>
      <stop offset=".42" stop-color="#784b97"/>
      <stop offset=".51" stop-color="#724996"/>
      <stop offset=".6" stop-color="#6c509c"/>
      <stop offset=".74" stop-color="#5e66ac"/>
      <stop offset=".91" stop-color="#4688c7"/>
      <stop offset=".95" stop-color="#4092cf"/>
    </linearGradient>
  </defs>
  <g>
    <text class="cls-4" transform="translate(.97 252.1)"><tspan x="0" y="0">ADS</tspan></text>
    <g>
      <path class="cls-6" d="m36,187.5l35.5,64.6h-14.6l-6.3-11.7h-29.5l-6.2,11.7H0l36-64.6Zm8.6,41.7l-8.8-16.4-8.7,16.4h17.5Z"/>
      <path class="cls-3" d="m73.8,190.1l21.1-.1c22.3-.1,36.2,13.1,36.2,31.2s-13.9,30.9-36.2,30.9h-21.1v-62h0Zm21,49.6c15.6-.1,22.6-7.1,22.6-18.5s-7-18.8-22.6-18.9l-7.5-.1v37.5h7.5Z"/>
      <path class="cls-7" d="m134.5,245.7l7.3-10.6c6.2,3.6,13.7,5.6,20.8,5.6,6.6,0,10.7-2.4,11-6.3.2-3.7-2.1-5.1-9.4-6.7l-7.7-1.7c-13.9-3.1-19.4-9.4-19.4-18.7,0-10.3,10.5-17.9,24.1-18,9.2,0,18.1,2.8,24.5,6.6l-6.8,10.5c-5-3-10.4-4.9-16.4-4.9-6.4,0-10.9,2.2-10.9,6.1,0,3.5,2.7,5.2,8.8,6.5l8.5,1.9c13.3,2.9,18.8,8.6,18.8,18.4,0,10.7-10.3,18.5-25.6,18.5-10,.1-20.5-2.8-27.6-7.2h0Z"/>
    </g>
  </g>
  <path class="cls-8" d="m355.2,86.6c.7-36.2-33.2-66.3-69-61.2-29.3,3.2-53.7,29.2-53.9,59-1.7,18.7,12.1,33.7,7,52.2-1.8,10.8,10.7,8.4,17.3,6.2,5-1.5,9.5-.6,14.4,1.3,39.1,16.1,84.7-15.3,84.2-57.5h0Z"/>
  <path class="cls-5" d="m274.4,27.2c-1.2-2.9-4-3.9-7-2.9-1.2.4-2.2,1.4-3.4,2-4.7,2.5-9.2,5.3-14.1,7.2-5.1,2-11,.8-14.6-2,7.4-1.6,11.7-6.7,15.1-12.8,2.5-4.4,4.7-8.9,7.5-13,3.9-5.9,9.6-7.2,15.8-4,5.5,2.8,8.7,7.4,9.4,13.6.4,3.4.6,6.8.9,10.2.1,1.3.4,2.4.8,3.4.5,1.2.9,4-2.3,5h0c-6.2.7-8-3.3-7.8-4.4.1-.7,0-1.5-.3-2.3h0Z"/>
  <ellipse class="cls-1" cx="319.9" cy="73.1" rx="4.4" ry="16.7"/>
  <ellipse class="cls-1" cx="285.2" cy="73.1" rx="4.4" ry="16.7"/>
  <text class="cls-2" transform="translate(199.81 252.92)"><tspan x="0" y="0">GENIUS</tspan></text>
</svg>